{
  "employees": [
    {"name": "Vasya", "years": 25, "position": "qa", "office": "1"},
    {"name": "Petya", "years": 25, "position": "front-end", "office": "1"},
    {"name": "Vasya", "years": 23, "position": "back-end", "office": "1"},
    {"name": "Sasha", "years": 18, "position": "front-end", "office": "1"},
    {"name": "Dima", "years": 16, "position": "back-end", "office": "1"},
    {"name": "Andrew", "years": 21, "position": "front-end", "office": "1"},
    {"name": "Dima", "years": 20, "position": "qa", "office": "1"}
  ]
}
